…
Both Denny’s and LaQuinta have a majority of their locations in
California, Texas, and Florida. This isn’t very surprising because these
are 3 highly populated states. I also learned from professor google that
the high concentration of locations in CA and TX can also be explained
by the fact that Denny’s and LaQuinta were founded in California and
Texas, respectively.

``` r
dennys %>%
  count(state) %>%
  arrange(desc(n))
```

    ## # A tibble: 51 × 2
    ##    state     n
    ##    <chr> <int>
    ##  1 CA      403
    ##  2 TX      200
    ##  3 FL      140
    ##  4 AZ       83
    ##  5 IL       56
    ##  6 NY       56
    ##  7 WA       49
    ##  8 OH       44
    ##  9 MO       42
    ## 10 PA       40
    ## # … with 41 more rows

``` r
laquinta %>%
  filter(country == "United States") %>%
  count(state) %>%
  arrange(desc(n))
```

    ## # A tibble: 48 × 2
    ##    state     n
    ##    <chr> <int>
    ##  1 TX      237
    ##  2 FL       74
    ##  3 CA       56
    ##  4 GA       41
    ##  5 TN       30
    ##  6 OK       29
    ##  7 LA       28
    ##  8 CO       27
    ##  9 NM       19
    ## 10 NY       19
    ## # … with 38 more rows
…
Both Denny’s and La Quinta have a large number of locations per square
mile both in states where they have a lot of locations in general, like
California, Texas, and Florida, as well as geographically small states
like Rhode Island, Connecticut, and Maryland.

``` r
#dennys locations by square miles
dennys %>%
  count(state) %>%
  inner_join(states, by = c("state" = "abbreviation")) %>%
  mutate(locations_per_sqm = (n/area)) %>%
  arrange(desc(locations_per_sqm))
```

    ## # A tibble: 51 × 5
    ##    state     n name                     area locations_per_sqm
    ##    <chr> <int> <chr>                   <dbl>             <dbl>
    ##  1 DC        2 District of Columbia     68.3          0.0293  
    ##  2 RI        5 Rhode Island           1545.           0.00324 
    ##  3 CA      403 California           163695.           0.00246 
    ##  4 CT       12 Connecticut            5543.           0.00216 
    ##  5 FL      140 Florida               65758.           0.00213 
    ##  6 MD       26 Maryland              12406.           0.00210 
    ##  7 NJ       10 New Jersey             8723.           0.00115 
    ##  8 NY       56 New York              54555.           0.00103 
    ##  9 IN       37 Indiana               36420.           0.00102 
    ## 10 OH       44 Ohio                  44826.           0.000982
    ## # … with 41 more rows

``` r
#laquinta locations by square miles
laquinta %>%
  filter(country == "United States") %>%
  count(state) %>%
  inner_join(states, by = c("state" = "abbreviation")) %>%
  mutate(locations_per_sqm = (n/area)) %>%
  arrange(desc(locations_per_sqm))
```

    ## # A tibble: 48 × 5
    ##    state     n name             area locations_per_sqm
    ##    <chr> <int> <chr>           <dbl>             <dbl>
    ##  1 RI        2 Rhode Island    1545.          0.00129 
    ##  2 FL       74 Florida        65758.          0.00113 
    ##  3 CT        6 Connecticut     5543.          0.00108 
    ##  4 MD       13 Maryland       12406.          0.00105 
    ##  5 TX      237 Texas         268596.          0.000882
    ##  6 TN       30 Tennessee      42144.          0.000712
    ##  7 GA       41 Georgia        59425.          0.000690
    ##  8 NJ        5 New Jersey      8723.          0.000573
    ##  9 MA        6 Massachusetts  10554.          0.000568
    ## 10 LA       28 Louisiana      52378.          0.000535
    ## # … with 38 more rows
…
